<svg width="10" height="8" viewBox="0 0 10 8" fill="none" xmlns="http://www.w3.org/2000/svg">
<g clip-path="url(#clip0)">
<path d="M8.50189 4.51593L5.76562 7.64299C5.59156 7.84201 5.30935 7.84201 5.13537 7.64299C4.96139 7.44415 4.96139 7.12164 5.13537 6.92281L7.55655 4.15584L5.13545 1.38897C4.96146 1.19004 4.96146 0.867569 5.13545 0.668725C5.30943 0.4698 5.59163 0.4698 5.76569 0.668725L8.50196 3.79583C8.58895 3.8953 8.6324 4.02553 8.6324 4.15583C8.6324 4.28618 8.58887 4.41651 8.50189 4.51593Z" fill="#ffffff"/>
</g>
<g clip-path="url(#clip1)">
<path d="M4.86541 4.51593L2.12914 7.64299C1.95508 7.84201 1.67288 7.84201 1.4989 7.64299C1.32491 7.44415 1.32491 7.12164 1.4989 6.92281L3.92008 4.15584L1.49897 1.38897C1.32498 1.19004 1.32498 0.867569 1.49897 0.668725C1.67296 0.4698 1.95515 0.4698 2.12921 0.668725L4.86548 3.79583C4.95248 3.8953 4.99593 4.02553 4.99593 4.15583C4.99593 4.28618 4.95239 4.41651 4.86541 4.51593Z" fill="#ffffff"/>
</g>
<defs>
<clipPath id="clip0">
<rect width="6.36364" height="7.27273" fill="white" transform="translate(3.63647)"/>
</clipPath>
<clipPath id="clip1">
<rect width="6.36364" height="7.27273" fill="white"/>
</clipPath>
</defs>
</svg>
