<svg width="269" height="246" viewBox="0 0 269 246" fill="none" xmlns="http://www.w3.org/2000/svg">
<g filter="url(#filter0_d)">
<mask id="mask0" mask-type="alpha" maskUnits="userSpaceOnUse" x="0" y="0" width="261" height="230">
<rect y="0.228027" width="261" height="228.947" fill="#171717"/>
</mask>
<g mask="url(#mask0)">
<path d="M148.018 30.9275C153.351 33.8239 159.201 35.2526 164.893 37.2359C170.825 39.2993 176.563 41.8937 182.398 44.214C194.553 49.0404 205.786 55.9134 218.573 59.0962C219.06 59.2171 218.465 59.8899 218.088 59.7924C205.323 56.6126 194.006 49.8529 181.912 44.9102C175.826 42.4241 169.77 39.802 163.556 37.6351C158.079 35.7291 152.5 34.3355 147.377 31.5513C146.984 31.3424 147.665 30.7377 148.018 30.9275Z" fill="white"/>
<path d="M175.189 21.7143C179.637 28.043 185.921 32.2204 192.248 36.4599C197.979 40.2957 203.043 45.9546 207.772 50.9253C210.034 53.3003 212.288 55.464 215.2 57.0028C218.206 58.592 221.933 58.9599 225.259 59.3486C231.826 60.1228 238.411 60.4245 244.968 61.3204C259.563 63.3135 274.333 63.4797 288.938 65.2863C302.437 66.9545 315.228 72.4978 328.955 72.647C329.5 72.6562 328.97 73.3292 328.624 73.3249C315.538 73.1789 303.181 68.3218 290.388 66.2334C283.122 65.0446 275.635 64.8511 268.295 64.2982C260.334 63.702 252.378 63.0277 244.463 61.9833C237.9 61.1224 231.338 60.7111 224.755 60.0115C218.189 59.3108 213.117 57.5913 208.386 52.8629C202.956 47.4344 197.745 41.7026 191.588 37.0676C185.364 32.3806 179.004 28.7311 174.425 22.2204C174.216 21.9135 174.976 21.4034 175.189 21.7143Z" fill="white"/>
<path d="M137.477 25.4249C128.104 33.2662 155.678 45.1925 159.907 48.759C160.034 48.8635 159.351 49.4423 159.142 49.2651C154.568 45.4175 126.816 33.9218 137.107 25.3097C137.391 25.0714 137.959 25.0273 137.477 25.4249Z" fill="white"/>
<path d="M169.002 18.4127C163.846 22.5054 170.309 30.0051 173.209 33.4083C176.919 37.7725 181.436 41.3988 185.117 45.7692C185.322 46.0158 184.575 46.5381 184.352 46.2754C180.136 41.2683 174.98 37.1587 170.881 32.0189C167.975 28.374 163.678 22.0229 168.55 18.1599C168.879 17.8885 169.48 18.0282 169.002 18.4127Z" fill="white"/>
<path d="M125.704 49.5314C137.811 50.7678 149.878 47.7866 161.989 49.0271C168.084 49.6534 173.438 53.0329 179.582 53.76C185.43 54.4537 191.267 54.8195 196.775 57.0954C197.249 57.2948 196.667 57.9539 196.295 57.8042C190.556 55.4303 184.393 55.1022 178.301 54.3805C172.165 53.6529 166.847 50.2886 160.7 49.6568C148.946 48.4546 137.196 51.4721 125.424 50.2624C124.851 50.2118 125.291 49.4924 125.704 49.5314Z" fill="white"/>
<path d="M115.282 50.9089C115.837 58.0041 122.063 58.9423 127.845 59.8952C134.103 60.9265 140.312 62.1597 146.635 62.7589C149.326 63.0101 152.053 62.7704 154.748 62.9435C157.404 63.1147 159.584 63.9902 161.969 65.1122C167.372 67.6541 173.094 69.0432 178.208 72.2517C178.518 72.4442 177.809 73.016 177.544 72.8467C172.43 69.6468 166.726 68.2004 161.301 65.7118C157.939 64.1665 155.012 63.5194 151.309 63.4828C148.476 63.4567 145.757 63.3283 142.934 63.0422C136.257 62.3657 129.684 60.8525 123.054 59.8748C118.347 59.1789 114.849 56.1029 114.471 51.2925C114.451 50.9652 115.252 50.5562 115.282 50.9089Z" fill="white"/>
<path d="M188.454 70.18C181.559 72.613 173.937 72.2507 166.74 72.8519C165.007 72.9992 163.292 73.2361 161.682 73.9248C158.976 75.0712 158.254 78.3462 157.852 80.918C157.194 85.1143 156.212 89.2358 155.929 93.4864C155.46 100.589 159.306 107.129 163.294 112.717C164.456 114.347 164.851 115.659 166.62 113.676C167.871 112.27 168.339 110.287 168.606 108.484C169.121 104.993 168.077 100.972 165.421 98.5831C165.27 98.4499 165.397 98.2604 165.52 98.1575C167.918 96.0705 169.555 93.188 168.535 89.9873C168.435 89.678 169.05 89.4233 169.271 89.496C171.725 90.3197 173.97 90.6247 176.523 90.0284C178.663 89.5314 180.007 87.8822 182 87.3036C183.058 86.9996 183.92 87.6635 184.79 88.1799C186.731 89.3253 188.468 89.874 190.712 90.2353C194.322 90.8095 197.961 90.8716 201.22 92.7001C204.921 94.7819 207.123 99.2318 208.641 103.011C210.001 106.415 210.307 110.037 209.516 113.61C208.447 118.429 204.78 122.493 202.668 126.88C200.26 131.877 199.897 138.226 200.594 143.66C201.382 149.811 206.026 154.316 211.107 157.406C211.421 157.594 210.717 158.169 210.443 158.001C206.371 155.527 202.416 152.03 200.646 147.514C199.096 143.559 199.427 139.025 199.846 134.887C200.393 129.573 202.636 125.343 205.363 120.84C208.307 115.982 209.936 111.47 208.603 105.807C207.504 101.158 204.597 95.9307 200.551 93.2996C197.131 91.0749 192.432 91.2995 188.546 90.6041C186.82 90.2927 185.616 89.6848 184.126 88.7835C181.702 87.3179 180.166 89.2861 178.003 90.1218C174.805 91.3551 171.811 91.1791 168.603 90.1041C168.848 89.9375 169.094 89.7794 169.339 89.6128C170.065 91.9022 169.513 94.2673 168.064 96.1825C167.771 96.5683 166.176 97.9868 166.625 98.4819C167.601 99.5407 168.371 100.759 168.797 102.147C170.236 106.843 169.59 112.95 164.985 115.646C164.847 115.728 164.599 115.852 164.469 115.696C160.63 111.128 157.388 105.718 155.649 99.9897C153.748 93.7352 156.224 86.4418 157.201 80.228C157.946 75.4815 160.812 73.1145 165.373 72.4099C173.1 71.2177 181.117 72.2299 188.609 69.5909C189.17 69.3699 188.78 70.0602 188.454 70.18Z" fill="white"/>
<path d="M212.801 146.127C214.444 142.989 213.628 139.227 215.366 136.091C217.326 132.557 219.273 128.938 221.349 125.465C224.921 119.483 231.114 117.089 237.274 114.577C242.847 112.305 247.242 108.558 251.852 104.806C255.317 101.991 259.101 99.8001 263.103 97.8506C270.914 94.0417 279.256 94.2335 287.527 92.2334C287.961 92.1284 287.288 92.7153 287.1 92.7616C279.277 94.6516 271.351 94.5505 263.859 97.8423C258.949 99.9998 254.57 102.937 250.445 106.343C247.53 108.747 244.629 111.108 241.35 113.003C238.355 114.734 234.996 115.8 231.828 117.166C227.21 119.158 223.824 122.059 221.354 126.391C219.576 129.515 218.024 132.734 216.094 135.773C214.176 138.79 215.168 142.676 213.529 145.809C213.442 146.001 212.676 146.36 212.801 146.127Z" fill="white"/>
<path d="M170.351 15.4963C168.889 17.9788 171.576 23.0772 174.74 21.6428C174.635 21.8353 174.53 22.0277 174.429 22.2243C173.268 19.6896 171.757 17.579 169.685 15.7152C169.333 15.3956 170.024 14.8077 170.326 15.0828C172.434 16.9875 174.009 19.1374 175.19 21.7227C175.304 21.9707 175.102 22.1995 174.879 22.3042C171.025 24.0585 167.806 18.44 169.656 15.2977C169.891 14.8938 170.657 14.9757 170.351 15.4963Z" fill="white"/>
<path d="M139.319 23.2474C142.408 25.5707 145.951 27.6668 148.071 30.9846C148.205 31.1924 147.627 31.4966 147.485 31.5184C143.595 32.1638 133.744 28.2829 138.656 23.5007C138.843 23.316 139.629 23.081 139.204 23.4967C134.677 27.9003 144.549 31.5074 147.884 30.9574C147.687 31.134 147.495 31.3146 147.298 31.4912C145.172 28.1608 141.639 26.0814 138.546 23.754C138.418 23.6496 139.084 23.0718 139.319 23.2474Z" fill="white"/>
<path d="M114.926 47.9265C115.117 52.2945 120.105 53.2798 123.492 51.7407C123.937 51.5226 124.344 51.2464 124.713 50.912C125.695 50.0766 124.524 49.791 124.034 49.5622C123.019 49.0722 121.867 48.8934 120.759 48.7379C118.618 48.4264 116.422 48.5075 114.261 48.4394C113.866 48.4251 114.503 47.7973 114.793 47.8094C118.536 47.93 122.856 47.5258 126.084 49.7756C126.169 49.8351 126.168 49.9477 126.112 50.029C123.25 54.1036 114.403 54.5745 114.128 48.3223C114.109 48.0035 114.91 47.5946 114.926 47.9265Z" fill="white"/>
<path d="M160.053 109.395C161.429 112.046 162.051 115.034 163.892 117.444C163.633 117.598 163.379 117.757 163.12 117.912C163.235 117.23 163.757 116.354 164.274 115.898C164.376 115.81 164.717 115.516 164.878 115.592C164.891 115.596 164.9 115.604 164.913 115.607C164.948 115.614 164.954 115.635 164.951 115.665C164.941 115.787 164.914 115.901 164.864 116.013C164.788 116.255 164.061 116.525 164.091 116.446C164.128 116.348 164.156 116.243 164.18 116.142C164.382 116.043 164.583 115.935 164.784 115.836C164.407 116.171 163.977 116.998 163.894 117.487C163.869 117.644 163.254 118.128 163.123 117.955C161.287 115.549 160.661 112.566 159.285 109.906C159.195 109.713 159.98 109.249 160.053 109.395Z" fill="white"/>
<path d="M212.789 146.223C210.887 143.734 208.992 146.568 208.288 148.441C207.775 149.814 207.848 151.296 208.145 152.7C208.728 155.474 210.932 157.749 213.432 158.907C213.194 159.048 212.947 159.188 212.705 159.325C213.872 154.828 213.974 150.654 212.772 146.167C212.7 145.9 213.48 145.44 213.57 145.772C214.783 150.309 214.655 154.542 213.48 159.064C213.421 159.297 212.989 159.592 212.753 159.482C208.83 157.669 206.428 153.547 207.347 149.239C207.909 146.606 211.065 142.456 213.553 145.708C213.732 145.948 212.977 146.47 212.789 146.223Z" fill="white"/>
<path d="M167.871 90.5654C166.732 89.534 165.724 88.3821 164.79 87.1649C164.546 86.8516 165.221 86.364 165.495 86.5977C166.909 87.8065 168.572 88.7229 169.652 90.2811C169.894 90.6335 169.134 91.1437 168.888 90.7872C167.845 89.2785 166.222 88.3985 164.85 87.2261C165.085 87.0341 165.32 86.8508 165.555 86.6588C166.456 87.8304 167.418 88.942 168.516 89.937C168.864 90.2526 168.173 90.8405 167.871 90.5654Z" fill="white"/>
<path d="M165.06 99.6086C163.863 99.6835 162.666 99.7669 161.487 100.005C161.521 99.7737 161.55 99.547 161.588 99.3198C163.262 99.0465 164.919 99.1332 166.561 99.5494C167.04 99.6708 166.431 100.331 166.067 100.237C164.556 99.8563 163.028 99.7529 161.487 100.005C160.888 100.103 161.174 99.4019 161.588 99.3198C162.84 99.0729 164.101 98.9811 165.368 98.9019C165.918 98.8588 165.439 99.5849 165.06 99.6086Z" fill="white"/>
<path d="M199.44 71.4601C202.345 71.4687 205.472 71.3467 208.197 72.5081C208.423 72.602 207.731 73.0821 207.566 73.0751C204.678 72.8708 201.796 72.2554 198.907 72.7343C198.646 72.7809 199.264 72.2018 199.482 72.1666C202.372 71.6876 205.254 72.303 208.141 72.5073C207.932 72.6976 207.719 72.8839 207.51 73.0742C204.812 71.9285 201.745 72.0467 198.865 72.0365C198.571 72.029 199.219 71.461 199.44 71.4601Z" fill="white"/>
<path d="M191.604 59.8225C194.401 61.5934 197.272 63.0958 200.461 64.0076C200.226 64.191 199.995 64.3697 199.76 64.5531C199.097 64.2529 198.634 63.8841 198.073 63.4046C197.973 63.3158 198.641 62.7897 198.806 62.8788C199.874 63.4477 200.987 63.9099 202.074 64.4386C201.83 64.6139 201.585 64.7891 201.341 64.9644C201.026 64.409 200.676 64.059 200.205 63.6259C200.109 63.5411 200.792 62.9622 200.97 63.1197C201.445 63.5483 201.795 63.8983 202.106 64.4583C202.198 64.6211 201.523 65.0524 201.372 64.9841C200.281 64.4599 199.168 63.9977 198.104 63.4243C198.349 63.249 198.593 63.0737 198.838 62.8985C199.311 63.3661 199.852 63.7301 200.461 64.0076C200.617 64.08 199.962 64.6096 199.76 64.5531C196.548 63.6383 193.645 62.1076 190.836 60.3332C190.772 60.2853 191.38 59.6809 191.604 59.8225Z" fill="white"/>
<path d="M199.791 62.0686C200.566 62.7292 201.455 63.2055 202.353 63.6726C202.728 63.8653 202.042 64.466 201.707 64.2923C200.81 63.8252 199.921 63.349 199.146 62.6884C198.804 62.4027 199.509 61.8268 199.791 62.0686Z" fill="white"/>
<path d="M199.956 61.882C201.233 62.6843 202.497 63.4916 203.637 64.4753C203.984 64.7736 203.284 65.3535 202.991 65.0951C201.851 64.1114 200.587 63.304 199.307 62.5063C198.934 62.2745 199.624 61.6779 199.956 61.882Z" fill="white"/>
<path d="M201.773 62.507C202.938 63.1865 204.084 63.8975 205.245 64.5816C205.46 64.7065 204.763 65.2646 204.557 65.1391C203.391 64.4596 202.246 63.7486 201.085 63.0646C200.874 62.9437 201.571 62.3856 201.773 62.507Z" fill="white"/>
<path d="M202.848 62.1201C204.073 63.1547 205.542 63.8412 207.006 64.4674C207.242 64.5694 206.572 65.1431 206.323 65.0376C204.818 64.3923 203.341 63.6891 202.083 62.6262C201.928 62.4889 202.615 61.9228 202.848 62.1201Z" fill="white"/>
<path d="M204.733 62.1142C205.75 62.9889 206.887 63.7004 208.039 64.3764C208.411 64.591 207.721 65.1876 207.394 64.9962C206.242 64.3202 205.101 63.6132 204.088 62.734C203.745 62.4397 204.45 61.8725 204.733 62.1142Z" fill="white"/>
<path d="M205.843 62.1014C206.266 62.4598 206.75 62.7408 207.241 62.9955C207.594 63.1767 208.061 63.4588 208.463 63.4725C208.814 63.4809 208.163 64.0794 207.912 64.0691C207.491 64.0565 207.066 63.8193 206.701 63.6432C206.127 63.3635 205.565 63.0225 205.074 62.6122C204.914 62.4708 205.61 61.9041 205.843 62.1014Z" fill="white"/>
<path d="M207.191 61.9657C208.02 62.6748 208.983 63.2157 210.034 63.5174C210.488 63.6491 209.856 64.2809 209.53 64.1889C208.426 63.8731 207.411 63.3269 206.541 62.5814C206.217 62.3033 206.926 61.7401 207.191 61.9657Z" fill="white"/>
<path d="M209.888 63.4142C210.22 63.3978 210.564 63.4325 210.898 63.4592C211.085 63.4691 211.272 63.4877 211.463 63.5017C211.532 63.506 211.653 63.4985 211.715 63.5291C211.822 63.583 211.671 63.7265 211.617 63.7687C211.249 64.1117 210.94 64.0835 210.489 64.0598C210.333 64.0523 210.653 63.7642 210.665 63.7505C210.805 63.6379 211 63.509 211.182 63.5149C211.33 63.523 211.513 63.5547 211.655 63.5329C211.475 63.635 211.287 63.7375 211.107 63.8396C211.077 63.9193 211.047 63.9989 211.009 64.0792C210.955 64.0479 210.857 64.0585 210.796 64.0536C210.613 64.0391 210.431 64.0245 210.248 64.01C209.936 63.9863 209.614 63.9545 209.303 63.9653C209.109 63.9731 209.279 63.7809 209.345 63.7249C209.475 63.5957 209.694 63.422 209.888 63.4142Z" fill="white"/>
<path d="M210.796 63.2538C213.337 63.6008 215.866 64.0178 218.372 64.5615C218.862 64.6692 218.272 65.346 217.887 65.2664C215.442 64.736 212.979 64.328 210.499 63.9858C209.941 63.9083 210.386 63.2016 210.796 63.2538Z" fill="white"/>
<path d="M202.244 58.5955C214.222 61.5694 226.62 61.5466 238.783 63.3459C239.127 63.3979 238.453 63.9676 238.222 63.9345C226.02 62.1247 213.583 62.1456 201.556 59.1617C201.363 59.1132 201.976 58.5301 202.244 58.5955Z" fill="white"/>
<path d="M177.011 42.9688C176.765 44.3246 176.628 45.7038 176.377 47.0641C176.349 47.2345 175.756 47.7213 175.606 47.5318C174.71 46.3814 174.417 45.1026 174.658 43.6693C174.683 43.5121 175.362 43.0113 175.43 43.2017C175.612 43.7135 175.672 44.2718 175.709 44.81C175.723 45.0426 174.943 45.4373 174.93 45.2305C174.895 44.7182 174.841 44.1897 174.669 43.7032C174.928 43.5487 175.186 43.3942 175.441 43.2356C175.201 44.6385 175.489 45.8874 176.37 47.017C176.111 47.1716 175.853 47.3261 175.599 47.4847C175.845 46.1289 175.982 44.7497 176.232 43.3893C176.278 43.1443 177.037 42.8288 177.011 42.9688Z" fill="white"/>
<path d="M180.395 45.2908C180.021 45.7423 179.804 46.3092 179.43 46.7607C179.325 46.6678 179.22 46.575 179.114 46.4821C179.952 46.0319 180.913 45.9762 181.82 45.7509C182.356 45.6135 182.026 46.1617 181.753 46.2869C181.13 46.5679 180.695 47.1616 180.059 47.4477C180.117 47.2625 180.171 47.0733 180.225 46.8926C180.767 46.8501 181.259 46.6982 181.761 46.4982C182.331 46.268 182.196 46.8256 181.796 46.9933C181.163 47.249 180.544 47.4607 179.86 47.5164C179.387 47.5546 179.84 47.042 180.025 46.9613C180.648 46.6802 181.084 46.0866 181.719 45.8004C181.7 45.9789 181.672 46.1579 181.652 46.3364C180.826 46.5437 179.907 46.5795 179.149 46.9858C178.882 47.1322 178.592 46.999 178.834 46.7071C179.209 46.2557 179.425 45.6887 179.8 45.2372C179.925 45.0867 180.162 44.9378 180.367 44.9553C180.575 44.9682 180.48 45.186 180.395 45.2908Z" fill="white"/>
<path d="M164.33 51.717C164.519 52.397 164.69 52.8663 164.428 53.5399C164.353 53.7262 163.853 54.1811 163.655 53.9168C163.039 53.0949 162.191 52.5166 161.749 51.5714C162.012 51.4209 162.272 51.275 162.53 51.1204C162.485 52.7274 163.058 54.1876 163.842 55.5655C163.992 55.8371 163.273 56.3101 163.077 56.0716C161.971 54.7355 161.518 53.2419 161.728 51.5121C161.762 51.2074 162.565 50.8415 162.53 51.1204C162.326 52.8065 162.763 54.2536 163.842 55.5655C163.588 55.7326 163.33 55.9044 163.077 56.0716C162.278 54.6644 161.685 53.1536 161.728 51.5121C161.737 51.2911 162.375 50.7713 162.509 51.0612C162.952 52.0064 163.804 52.5887 164.416 53.4066C164.159 53.5307 163.899 53.6594 163.643 53.7835C163.886 53.1587 163.699 52.7163 163.528 52.1001C163.455 51.8322 164.236 51.3727 164.33 51.717Z" fill="white"/>
<path d="M167.36 54.0525C167.048 54.4049 166.808 54.7226 166.645 55.1738C166.413 55.197 166.177 55.2247 165.945 55.2478C166.64 54.5169 167.744 53.968 168.221 53.0691C168.361 52.8095 169.182 52.5161 168.947 52.9934C168.434 54.0156 168.033 55.0957 167.304 55.993C167.19 55.8921 167.085 55.7906 166.975 55.6936C167.843 55.328 168.647 54.8887 169.427 54.3556C169.668 54.1936 170.198 54.2382 169.866 54.5963C168.669 55.8948 167.192 56.7091 165.462 57.0551C164.962 57.1512 165.531 56.4714 165.817 56.4146C167.162 56.1446 168.322 55.5143 169.255 54.5048C169.402 54.5863 169.546 54.6639 169.693 54.7455C168.846 55.3173 167.976 55.804 167.027 56.1963C166.757 56.3083 166.444 56.2025 166.698 55.8969C167.377 55.0545 167.747 54.0197 168.229 53.0599C168.47 53.0362 168.715 53.0079 168.955 52.9842C168.424 53.9903 167.328 54.5215 166.568 55.3256C166.478 55.4177 165.716 55.8199 165.868 55.3997C166.067 54.8338 166.369 54.3998 166.762 53.9559C166.976 53.7047 167.752 53.5999 167.36 54.0525Z" fill="white"/>
<path d="M155.809 36.0318C155.777 36.0684 155.748 36.1004 155.716 36.137C155.668 36.2092 155.667 36.1919 155.717 36.0894C155.706 36.0382 155.698 35.9825 155.686 35.9313C155.532 35.8848 155.5 35.8651 155.596 35.8678C155.639 35.8651 155.682 35.8624 155.725 35.8597C155.932 35.8468 156.033 36.0264 155.953 36.2C155.862 36.4046 155.632 36.5444 155.417 36.5578C155.236 36.5691 154.935 36.5966 154.895 36.357C154.849 36.1047 155.149 35.8482 155.291 35.688C155.412 35.5507 155.703 35.433 155.87 35.548C156.073 35.678 155.914 35.9128 155.809 36.0318Z" fill="white"/>
<path d="M155.223 36.1633C155.074 36.0559 154.859 36.1428 154.683 36.0198C154.357 35.7894 155.062 35.2221 155.342 35.4122C155.491 35.5196 155.706 35.4326 155.882 35.5556C156.212 35.7901 155.507 36.3574 155.223 36.1633Z" fill="white"/>
<path d="M154.57 35.4085C154.513 35.4726 154.461 35.5321 154.404 35.5962C154.278 35.738 154.046 35.891 153.851 35.8901C153.644 35.8945 153.79 35.6734 153.855 35.6002C153.912 35.5361 153.964 35.4766 154.021 35.4126C154.146 35.2707 154.379 35.1178 154.574 35.1186C154.786 35.1183 154.635 35.3353 154.57 35.4085Z" fill="white"/>
<path d="M139.227 50.7569C139.313 50.9547 139.431 51.1246 139.554 51.2985C139.635 51.4102 139.769 51.5532 139.781 51.6951C139.803 51.9099 139.547 52.0989 139.374 52.1832C139.148 52.2925 138.96 52.2567 138.738 52.1668C138.468 52.0583 139.137 51.4759 139.412 51.5885C139.54 51.6367 139.66 51.6205 139.46 51.6719C139.36 51.7301 139.256 51.7928 139.155 51.851C139.159 51.8464 139.164 51.8418 139.168 51.8372C139.107 51.9145 139.047 51.9918 138.996 52.0685C138.97 52.1522 138.97 52.0701 138.931 52.0033C138.888 51.9325 138.841 51.8663 138.794 51.8001C138.671 51.6262 138.552 51.4563 138.467 51.2584C138.337 50.9725 139.122 50.517 139.227 50.7569Z" fill="white"/>
<path d="M139.288 50.8174C139.123 51.0051 138.957 51.1927 138.795 51.3758C138.669 51.5177 138.437 51.6706 138.242 51.6698C138.035 51.6741 138.186 51.4571 138.251 51.3839C138.416 51.1963 138.582 51.0086 138.744 50.8255C138.87 50.6837 139.102 50.5307 139.297 50.5315C139.504 50.5272 139.349 50.7488 139.288 50.8174Z" fill="white"/>
<path d="M183.601 43.0921C183.844 42.8261 184.166 42.5725 184.494 42.4136C184.67 42.3248 185.071 42.3127 185.012 42.619C184.963 42.8858 184.709 43.1179 184.54 43.3188C184.398 43.4789 184.187 43.6348 183.959 43.5799C183.757 43.532 183.765 43.2937 183.882 43.161C183.967 43.0649 184.048 42.9734 184.128 42.8732C184.157 42.8412 184.18 42.8051 184.205 42.7776C184.269 42.6958 184.177 42.8269 184.194 42.8907C184.223 42.9322 184.251 42.9736 184.28 43.0151C184.421 43.0668 184.55 43.0501 184.662 42.9782C184.629 42.9976 184.6 43.021 184.566 43.0404C184.542 43.0592 184.401 43.1632 184.442 43.1346C184.331 43.2237 184.22 43.3128 184.123 43.4227C183.997 43.556 183.719 43.6771 183.539 43.5673C183.341 43.4413 183.496 43.2111 183.601 43.0921Z" fill="white"/>
<path d="M175.901 34.6805C175.872 34.7125 175.807 34.8506 175.835 34.7364C175.817 34.8024 175.836 34.8921 175.84 34.961C175.862 35.3228 175.043 35.7242 175.023 35.3234C175.008 35 175.029 34.7825 175.252 34.5308C175.389 34.3752 175.609 34.2187 175.828 34.2656C176.03 34.3221 176.014 34.5523 175.901 34.6805Z" fill="white"/>
<path d="M180.577 29.1342C180.846 29.3725 181.116 29.6108 181.39 29.853C181.477 29.9298 180.799 30.5126 180.625 30.3592C180.543 30.2865 180.456 30.2097 180.374 30.1371C180.292 30.0644 180.965 29.4775 181.139 29.6309C181.221 29.7036 181.308 29.7804 181.39 29.853C181.477 29.9298 180.799 30.5126 180.625 30.3592C180.356 30.1209 180.086 29.8827 179.812 29.6404C179.725 29.5636 180.403 28.9808 180.577 29.1342Z" fill="white"/>
<path d="M192.597 38.4312C193.208 39.0286 193.504 39.8532 194.129 40.4541C194.253 40.5717 193.561 41.0689 193.4 40.9839C192.561 40.5521 191.722 40.1116 190.855 39.7291C191.1 39.5538 191.34 39.3745 191.584 39.1993C192.516 40.3084 193.73 41.08 195.202 40.5383C195.014 40.7144 194.826 40.8991 194.638 41.0751C194.017 40.755 194.02 40.2923 193.819 39.6908C193.739 39.4494 194.536 39.045 194.584 39.1847C194.773 39.7436 194.746 40.2166 195.335 40.5257C195.558 40.6414 194.856 41.0313 194.771 41.0625C193.185 41.6416 191.845 40.9298 190.819 39.7054C190.693 39.5533 191.388 39.1077 191.548 39.1756C192.418 39.5535 193.253 39.9899 194.093 40.4304C193.848 40.6056 193.608 40.7849 193.364 40.9602C192.744 40.3633 192.439 39.5393 191.832 38.9373C191.721 38.8232 192.426 38.2559 192.597 38.4312Z" fill="white"/>
<path d="M163.203 76.9731C163.233 77.2436 163.394 77.4757 163.223 77.7242C163.104 77.896 162.908 78.0249 162.723 78.1057C162.668 78.1307 162.375 78.2225 162.495 78.0594C162.606 77.8968 162.454 77.5907 162.43 77.4063C162.409 77.2 163.189 76.8053 163.203 76.9731Z" fill="white"/>
<path d="M163.462 75.2934C163.298 76.51 163.045 77.6154 162.061 78.4336C162.014 78.2939 161.962 78.1501 161.915 78.0104C163.013 77.7255 163.354 76.6492 163.561 75.6504C163.608 75.4226 164.276 74.9614 164.36 75.3367C164.543 76.1511 164.232 76.724 163.909 77.4576C163.787 77.7333 162.97 78.0136 163.183 77.5333C163.464 76.9017 163.708 76.4238 163.553 75.7244C163.819 75.617 164.085 75.5182 164.351 75.4108C164.047 76.8869 163.297 78.205 161.752 78.6086C161.386 78.7007 161.362 78.3865 161.605 78.1854C162.416 77.5077 162.537 76.5143 162.672 75.533C162.71 75.2323 163.518 74.8618 163.462 75.2934Z" fill="white"/>
<path d="M158.886 80.1532C159.785 80.2959 160.531 80.6946 161.472 80.5234C161.293 80.7161 161.115 80.9089 160.936 81.1016C160.541 81.0053 160.164 80.9899 159.76 81.0152C159.544 81.0287 159.689 80.7818 159.754 80.7086C159.896 80.557 160.105 80.4316 160.311 80.4187C160.759 80.3906 161.176 80.4251 161.615 80.5274C161.896 80.5963 161.186 81.086 161.079 81.1057C160.596 81.1921 160.134 81.1994 159.657 81.1038C159.206 81.0153 158.788 80.8252 158.339 80.7539C157.972 80.6903 158.646 80.112 158.886 80.1532Z" fill="white"/>
<path d="M212.817 139.416C213.146 139.707 213.452 139.904 213.878 140.029C213.634 140.204 213.394 140.383 213.15 140.559C212.621 140.116 211.99 139.9 211.365 139.641C211.183 139.562 211.831 138.994 212.057 139.088C212.71 139.362 213.363 139.59 213.91 140.057C214.065 140.186 213.349 140.637 213.182 140.587C212.728 140.455 212.4 140.238 212.048 139.927C211.933 139.817 212.62 139.243 212.817 139.416Z" fill="white"/>
<path d="M210.088 137.801C208.994 137.657 207.894 137.557 206.823 137.287C206.63 137.239 207.243 136.655 207.511 136.721C208.542 136.981 209.603 137.079 210.653 137.216C210.989 137.26 210.314 137.83 210.088 137.801Z" fill="white"/>
<path d="M214.217 136.332C214.398 136.533 214.428 136.812 214.609 137.013C214.836 137.262 214.098 137.793 213.844 137.519C213.663 137.318 213.633 137.039 213.453 136.838C213.226 136.589 213.963 136.059 214.217 136.332Z" fill="white"/>
<path d="M206.111 134.244C209.477 134.366 212.918 133.714 216.125 135.049C216.599 135.248 216.004 135.904 215.64 135.754C212.5 134.445 209.115 135.089 205.814 134.976C205.255 134.954 205.703 134.226 206.111 134.244Z" fill="white"/>
<path d="M216.748 133.791C216.362 134.135 215.983 134.093 215.618 133.77C215.262 133.455 215.948 132.863 216.258 133.138C216.3 133.174 216.341 133.211 216.382 133.247C216.573 133.408 216.456 133.182 216.201 133.405C216.353 133.27 216.605 133.151 216.795 133.286C216.971 133.409 216.887 133.669 216.748 133.791Z" fill="white"/>
<path d="M76.8778 111.53C80.25 116.24 82.3757 121.568 84.8524 126.766C87.6851 132.702 91.1643 138.322 94.3241 144.091C100.605 155.563 108.799 165.865 113.531 178.168C113.659 178.502 112.879 178.961 112.766 178.674C108.049 166.4 99.9434 155.989 93.5592 144.597C90.4907 139.121 87.2956 133.695 84.4868 128.081C81.7761 122.66 79.6651 117.003 76.113 112.036C75.9149 111.763 76.6792 111.248 76.8778 111.53Z" fill="white"/>
<path d="M70.9629 139.551C77.4723 143.022 82.2844 148.377 87.0455 153.89C91.8301 159.433 98.124 163.986 103.986 168.328C106.629 170.29 109.085 172.281 110.988 175.007C112.777 177.567 113.581 180.838 114.354 183.82C116.088 190.531 117.186 197.38 118.963 204.087C122.815 218.638 124.68 233.659 128.54 248.192C131.961 261.058 138.733 272.858 140.526 286.175C140.557 286.407 139.774 286.823 139.747 286.596C137.962 273.343 131.345 261.46 127.779 248.694C125.88 241.903 124.798 234.824 123.411 227.914C121.848 220.1 120.2 212.299 118.197 204.585C116.618 198.492 115.417 192.376 114.05 186.235C112.56 179.544 110.328 174.318 104.815 170.023C99.0246 165.508 93.0231 161.213 87.7897 156.04C82.004 150.314 77.6637 144.039 70.2742 140.1C70.0739 140.004 70.7529 139.439 70.9629 139.551Z" fill="white"/>
<path d="M69.0648 102.105C76.5392 90.5385 91.5167 116.963 95.914 121.038C96.2303 121.334 95.5203 121.888 95.2594 121.649C91.2235 117.902 76.1375 92.3277 69.7223 102.254C69.4964 102.592 68.7322 102.61 69.0648 102.105Z" fill="white"/>
<path d="M65.8611 134.323C68.964 129.238 75.1446 131.922 79.2078 134.193C85.3122 137.616 90.2205 142.632 96.0443 146.419C96.3502 146.616 95.6367 147.184 95.3799 147.014C90.9422 144.126 87.0311 140.44 82.6843 137.413C79.0601 134.894 70.0756 128.533 66.5911 134.242C66.434 134.503 65.5938 134.763 65.8611 134.323Z" fill="white"/>
<path d="M92.7148 87.3477C95.3552 98.8871 94.0275 110.865 96.4364 122.436C97.6269 128.168 101.455 132.767 103.03 138.359C104.793 144.622 105.618 151.026 108.876 156.776C109.089 157.152 108.324 157.649 108.111 157.282C105.192 152.125 104.042 146.355 102.685 140.646C101.251 134.609 97.3534 129.72 95.8297 123.767C92.8118 111.991 94.5952 99.5442 91.8797 87.6939C91.7954 87.3014 92.6096 86.8959 92.7148 87.3477Z" fill="white"/>
<path d="M92.4622 76.4903C97.4377 76.2657 100.46 79.3455 101.988 83.8678C103.996 89.8258 105.839 96.045 107.316 102.162C108.787 108.231 108.655 114.971 111.995 120.371C115.297 125.703 117.59 131.505 121.575 136.414C121.72 136.591 120.978 137.126 120.81 136.92C117.208 132.488 115.074 127.381 112.236 122.491C111.155 120.631 109.649 118.818 109.151 116.674C108.476 113.729 108.162 110.769 107.718 107.783C106.742 101.246 104.3 94.8311 102.4 88.5204C100.72 82.9094 99.0708 76.7473 91.8921 77.0707C91.5901 77.081 92.2291 76.4962 92.4622 76.4903Z" fill="white"/>
<path d="M119.441 147.679C121.061 140.305 119.583 132.55 119.395 125.095C119.27 119.879 121.383 117.019 126.255 115.3C131.999 113.268 138.879 110.659 145.062 111.241C151.11 111.809 157.464 114.923 162.477 118.181C162.581 118.248 162.562 118.362 162.52 118.464C160.473 123.201 154.761 124.617 150.05 124.073C148.818 123.93 147.651 123.501 146.546 122.965C146.448 122.919 145.211 122.054 145.152 122.14C144.711 122.794 144.144 123.344 143.584 123.885C141.805 125.622 139.388 126.478 136.944 126.021C137.157 125.826 137.37 125.631 137.583 125.436C139.191 128.799 139.454 131.779 138.549 135.398C137.986 137.656 136.482 138.805 138.172 141.008C139.251 142.411 139.948 143.492 140.517 145.177C141.844 149.098 142.157 153.337 144.673 156.76C147.561 160.683 153.469 162.505 158.063 163.2C164.433 164.159 169.082 160.751 173.819 157.022C177.492 154.137 181.173 152.035 185.733 150.937C189.892 149.933 194.179 149.337 198.414 150.17C203.122 151.095 207.224 155.007 210.099 158.641C210.319 158.917 209.564 159.439 209.334 159.147C205.56 154.376 200.729 150.709 194.504 150.423C188.725 150.158 182.252 151.92 177.425 155.024C173.53 157.533 170.249 161.383 165.801 162.962C161.983 164.317 158.203 164.22 154.314 163.188C150.672 162.226 147 160.562 144.374 157.825C141.86 155.211 141.254 151.283 140.389 147.917C139.835 145.773 139.207 143.823 137.838 142.067C137.243 141.304 135.89 140.1 136.215 138.969C136.785 136.961 137.905 135.326 138.248 133.199C138.662 130.622 137.913 128.256 136.819 125.96C136.666 125.645 137.191 125.327 137.458 125.375C140.668 125.978 143.204 123.965 144.91 121.437C145.005 121.293 145.384 121.048 145.561 121.197C148.003 123.323 151.156 123.77 154.296 123.44C156.35 123.225 158.349 122.391 159.965 121.105C162.386 119.177 161.159 118.328 159.14 117.188C152.371 113.356 145.19 110.93 137.438 112.63C133.909 113.399 130.493 114.668 127.036 115.706C124.544 116.454 122.188 117.379 120.921 119.815C120.027 121.536 120.189 123.774 120.237 125.634C120.416 132.878 121.822 140.318 120.251 147.49C120.178 147.784 119.343 148.122 119.441 147.679Z" fill="white"/>
<path d="M198.545 162.935C195.844 164.803 192.39 164.66 189.55 166.243C187.932 167.144 186.385 168.728 184.873 169.83C183.346 170.942 181.77 171.979 180.233 173.082C173.112 178.219 172.366 186.169 169.673 193.874C168.342 197.671 166.051 201.101 163.894 204.461C161.11 208.807 158.991 213.221 157.319 218.094C154.545 226.184 155.779 234.418 154.827 242.74C154.788 243.097 153.951 243.417 154.009 242.938C154.979 234.476 153.891 226.372 156.56 218.116C157.91 213.928 159.737 209.983 162.026 206.225C164.991 201.361 168.101 196.822 169.751 191.309C171.739 184.66 172.99 177.98 178.782 173.471C181.965 170.994 185.377 168.873 188.499 166.309C191.316 163.988 195.298 164.492 198.235 162.457C198.691 162.135 199.006 162.617 198.545 162.935Z" fill="white"/>
<path d="M156.77 217.583C156.739 217.564 156.707 217.535 156.675 217.516C156.918 217.379 157.164 217.239 157.407 217.102C156.911 218.694 157.688 221.166 157.988 222.76C158.669 226.363 159.246 229.972 160.264 233.497C162.395 240.917 165.338 248.092 169.289 254.724C169.467 255.029 168.702 255.526 168.524 255.231C164.731 248.852 161.898 241.986 159.751 234.887C158.584 231.034 157.908 227.085 157.18 223.131C156.876 221.468 156.09 218.988 156.608 217.325C156.673 217.114 157.095 216.728 157.339 216.912C157.367 216.936 157.403 216.96 157.434 216.98C157.742 217.211 157.033 217.774 156.77 217.583Z" fill="white"/>
<path d="M63.3175 135.808C64.8043 134.66 66.5489 134.556 68.2837 135.217C70.0585 135.897 71.6255 137.641 71.0062 139.621C70.9371 139.837 70.5217 140.188 70.2707 140.112C67.5733 139.261 65.2556 137.97 63.1204 136.123C62.9971 136.014 63.6756 135.44 63.8852 135.617C66.0067 137.452 68.2919 138.706 70.963 139.55C70.7221 139.712 70.4725 139.875 70.2275 140.042C71.2308 136.836 66.1871 134.007 63.6881 135.932C63.39 136.15 62.8134 136.194 63.3175 135.808Z" fill="white"/>
<path d="M68.1229 103.789C70.7939 106.558 73.2903 109.8 76.8341 111.49C76.5891 111.656 76.3436 111.814 76.094 111.977C76.2125 109.081 71.6894 99.2203 68.0822 103.973C67.934 104.168 67.0969 104.48 67.3851 104.099C71.6804 98.4296 77.0656 107.177 76.8823 111.573C76.8711 111.816 76.3827 112.175 76.1423 112.06C72.5586 110.352 70.0478 107.088 67.3489 104.287C67.1875 104.12 67.9152 103.573 68.1229 103.789Z" fill="white"/>
<path d="M89.369 76.4794C95.4183 75.9974 96.4467 84.4077 92.7094 87.7978C92.5864 87.9092 92.2614 88.1111 92.1086 87.9434C89.4931 85.0197 89.3597 80.6784 88.7856 76.9828C88.742 76.6915 89.5328 76.2573 89.5876 76.5911C90.1596 80.2522 90.2767 84.5384 92.8775 87.4327C92.6774 87.4841 92.4768 87.5269 92.2767 87.5783C95.666 84.5084 94.3867 76.6672 89.0042 77.0945C88.4879 77.1355 89.0893 76.5012 89.369 76.4794Z" fill="white"/>
<path d="M156.122 113.771C158.922 114.811 161.963 115.061 164.581 116.593C164.845 116.745 164.138 117.122 164.036 117.154C163.692 117.258 163.232 117.667 163.009 117.763C163.543 117.518 163.02 118.156 162.785 118.266C162.633 118.336 162.519 118.382 162.362 118.422C162.311 118.434 162.216 118.448 162.183 118.394C162.174 118.386 162.169 118.374 162.163 118.361C162.13 118.307 162.181 118.23 162.209 118.189C162.678 117.512 163.657 116.828 164.443 116.593C164.26 116.781 164.081 116.966 163.897 117.154C161.284 115.627 158.242 115.368 155.439 114.332C155.227 114.259 155.875 113.682 156.122 113.771Z" fill="white"/>
<path d="M198.065 163.004C194.192 160.738 198.838 157.279 201.315 156.419C205.329 155.026 209.76 157.313 211.887 160.735C212.026 160.955 211.757 161.223 211.567 161.299C207.134 163.055 202.88 163.697 198.144 163.034C197.669 162.964 198.272 162.291 198.634 162.341C203.147 162.972 207.216 162.345 211.447 160.671C211.337 160.86 211.231 161.044 211.126 161.236C209.694 158.935 207.537 157.435 204.887 156.87C202.999 156.465 201.084 156.965 199.476 157.965C197.705 159.066 196.459 161.055 198.714 162.371C199.091 162.598 198.405 163.199 198.065 163.004Z" fill="white"/>
<path d="M137.246 125.198C136.106 124.214 134.857 123.371 133.565 122.605C133.782 122.397 133.999 122.197 134.215 121.989C135.566 123.223 136.661 124.746 138.313 125.611C138.675 125.801 137.989 126.401 137.663 126.227C136.002 125.362 134.92 123.843 133.565 122.605C133.236 122.305 133.911 121.809 134.215 121.989C135.511 122.751 136.756 123.599 137.896 124.582C138.229 124.868 137.524 125.436 137.246 125.198Z" fill="white"/>
<path d="M145.75 121.039C145.675 119.807 145.609 118.575 145.703 117.337C145.718 117.089 146.491 116.712 146.486 116.92C146.419 118.533 146.708 120.084 147.292 121.587C147.389 121.836 146.594 122.266 146.527 122.093C145.933 120.565 145.638 118.984 145.707 117.341C145.967 117.203 146.231 117.062 146.49 116.924C146.401 118.158 146.467 119.39 146.538 120.627C146.548 120.864 145.763 121.263 145.75 121.039Z" fill="white"/>
<path d="M123.411 157.704C123.773 160.544 124.024 163.62 125.487 166.144C125.223 166.286 124.96 166.437 124.696 166.579C124.133 163.708 123.177 160.906 123.3 157.949C123.314 157.611 124.132 157.266 124.109 157.743C123.99 160.639 124.962 163.406 125.508 166.212C125.565 166.507 124.901 166.964 124.718 166.646C123.226 164.072 122.96 160.967 122.59 158.071C122.551 157.719 123.365 157.305 123.411 157.704Z" fill="white"/>
<path d="M110.832 151.193C112.938 153.755 114.799 156.436 116.092 159.503C116.248 159.869 115.552 160.371 115.327 160.009C115.028 159.427 114.605 158.947 114.059 158.562C114.294 158.37 114.529 158.187 114.764 157.995C115.459 158.985 116.055 160.033 116.713 161.047C116.908 161.35 116.363 161.765 116.083 161.648C115.463 161.393 115.055 161.09 114.535 160.647C114.189 160.348 114.889 159.768 115.185 160.022C115.586 160.425 116.045 160.734 116.577 160.951C116.369 161.15 116.16 161.349 115.948 161.553C115.294 160.534 114.699 159.486 113.999 158.501C113.782 158.195 114.444 157.704 114.704 157.934C115.244 158.427 115.698 158.862 116.087 159.499C115.834 159.666 115.576 159.838 115.322 160.005C114.025 156.934 112.164 154.262 110.063 151.695C109.811 151.382 110.566 150.868 110.832 151.193Z" fill="white"/>
<path d="M114.074 159.033C114.848 159.741 115.448 160.581 116.036 161.435C116.263 161.767 115.503 162.277 115.271 161.942C114.712 161.129 114.152 160.317 113.424 159.649C113.091 159.354 113.8 158.782 114.074 159.033Z" fill="white"/>
<path d="M113.968 159.281C114.898 160.429 115.831 161.564 116.925 162.555C117.281 162.879 116.595 163.471 116.284 163.187C115.145 162.156 114.166 160.981 113.203 159.787C112.927 159.445 113.688 158.935 113.968 159.281Z" fill="white"/>
<path d="M114.778 160.99C115.596 162.063 116.446 163.108 117.263 164.181C117.465 164.45 116.714 164.968 116.498 164.688C115.681 163.614 114.831 162.569 114.013 161.496C113.811 161.228 114.562 160.71 114.778 160.99Z" fill="white"/>
<path d="M114.44 162.019C115.654 163.141 116.542 164.521 117.371 165.939C117.554 166.248 116.78 166.746 116.606 166.446C115.806 165.077 114.953 163.704 113.781 162.618C113.483 162.347 114.207 161.805 114.44 162.019Z" fill="white"/>
<path d="M114.782 163.986C115.774 164.888 116.62 165.929 117.428 166.994C117.546 167.147 116.799 167.678 116.663 167.5C115.851 166.44 115.01 165.394 114.017 164.492C113.907 164.395 114.594 163.82 114.782 163.986Z" fill="white"/>
<path d="M114.841 165.042C115.303 165.467 115.68 165.971 116.027 166.49C116.25 166.826 116.529 167.22 116.593 167.626C116.63 167.879 115.843 168.309 115.8 168.035C115.736 167.619 115.391 167.2 115.167 166.864C114.853 166.39 114.493 165.933 114.067 165.549C113.929 165.41 114.63 164.848 114.841 165.042Z" fill="white"/>
<path d="M114.934 166.45C115.762 167.207 116.422 168.117 116.861 169.149C116.957 169.381 116.166 169.815 116.096 169.655C115.658 168.623 114.997 167.713 114.169 166.956C114.049 166.843 114.741 166.272 114.934 166.45Z" fill="white"/>
<path d="M116.687 169.038C116.711 169.352 116.786 169.672 116.848 169.979C116.884 170.15 116.917 170.325 116.948 170.492C116.965 170.556 116.973 170.62 116.99 170.684C117.002 170.744 117.011 170.735 116.997 170.723C116.752 170.824 116.508 170.926 116.268 171.032C116.176 171.154 116.226 171.199 116.203 171.04C116.187 170.912 116.162 170.783 116.141 170.651C116.094 170.373 116.884 169.938 116.938 170.255C116.966 170.426 117.09 170.756 116.97 170.919C116.874 171.046 116.402 171.469 116.241 171.228C116.198 171.166 116.19 171.037 116.168 170.96C116.131 170.781 116.095 170.602 116.058 170.422C115.995 170.098 115.914 169.765 115.894 169.429C115.868 169.146 116.664 168.733 116.687 169.038Z" fill="white"/>
<path d="M116.759 170.107C117.409 172.557 118.127 174.985 118.964 177.372C119.074 177.698 118.288 178.136 118.147 177.743C117.315 175.352 116.597 172.923 115.943 170.478C115.853 170.138 116.653 169.703 116.759 170.107Z" fill="white"/>
<path d="M110.957 161.934C115.383 173.478 116.887 185.807 120.174 197.673C120.246 197.932 119.448 198.319 119.409 198.179C116.126 186.308 114.622 173.98 110.192 162.44C110.1 162.204 110.895 161.773 110.957 161.934Z" fill="white"/>
<path d="M91.9753 138.73C93.2907 138.319 94.6427 138.014 95.962 137.599C95.8271 137.798 95.6835 137.997 95.5486 138.195C94.3823 137.499 93.1972 137.348 91.8935 137.736C92.0107 137.53 92.1193 137.325 92.2365 137.118C92.7272 137.226 93.2416 137.224 93.7412 137.193C94.2626 137.165 93.6881 137.814 93.3866 137.833C92.8307 137.864 92.252 137.874 91.7131 137.756C91.2883 137.666 91.8905 137.187 92.0561 137.138C93.5168 136.701 94.8985 136.814 96.2174 137.604C96.5137 137.785 95.9483 138.157 95.804 138.201C94.4841 138.608 93.1367 138.917 91.8173 139.332C91.2399 139.507 91.6441 138.829 91.9753 138.73Z" fill="white"/>
<path d="M94.1321 142.071C94.5383 141.64 95.0704 141.36 95.4725 140.933C95.6591 140.731 96.2665 140.624 96.0945 141.067C95.7802 141.873 95.8625 142.802 95.7581 143.647C95.4855 143.716 95.2176 143.789 94.9491 143.854C95.1552 143.188 95.6915 142.692 95.8935 142.031C95.9585 141.819 96.6884 141.306 96.7104 141.742C96.7364 142.384 96.63 142.983 96.4598 143.599C96.3758 143.924 95.5306 144.245 95.6509 143.805C95.8024 143.238 95.9165 142.695 95.8937 142.104C96.1646 142.009 96.4356 141.914 96.7105 141.815C96.4999 142.477 95.9641 142.982 95.7662 143.638C95.6795 143.92 94.8928 144.35 94.9572 143.845C95.0742 142.921 95.0122 141.969 95.3567 141.091C95.5625 141.135 95.7729 141.182 95.9788 141.225C95.5726 141.657 95.0405 141.937 94.6384 142.364C94.301 142.718 93.7179 142.512 94.1321 142.071Z" fill="white"/>
<path d="M99.2673 125.052C99.7996 125.131 100.232 125.277 100.739 125.007C100.633 125.191 100.527 125.367 100.422 125.55C99.5303 125.04 98.8524 124.269 97.8601 123.947C97.5204 123.834 98.2483 123.36 98.3769 123.343C100.035 123.089 101.633 123.499 103.159 124.13C102.937 124.325 102.711 124.525 102.49 124.721C101.127 123.85 99.6954 123.555 98.111 123.948C97.5274 124.093 97.9509 123.448 98.2832 123.367C100.038 122.928 101.634 123.157 103.163 124.134C103.474 124.335 102.751 124.83 102.494 124.725C101.066 124.131 99.5726 123.74 98.0218 123.975C98.1912 123.774 98.3647 123.569 98.5387 123.372C99.535 123.69 100.213 124.47 101.104 124.972C101.364 125.12 100.896 125.456 100.787 125.515C100.071 125.901 99.5251 125.81 98.744 125.69C98.3288 125.616 98.9834 125.005 99.2673 125.052Z" fill="white"/>
<path d="M101.177 128.193C101.615 127.707 102.049 127.317 102.637 127.029C102.897 126.9 103.165 126.966 102.923 127.258C102.182 128.16 101.768 129.31 100.785 129.999C100.714 129.895 100.647 129.787 100.571 129.679C101.423 129.111 102.38 128.645 103.096 127.9C103.178 127.817 103.87 127.393 103.763 127.772C103.496 128.718 103.143 129.605 102.691 130.485C102.468 130.525 102.246 130.573 102.024 130.613C102.988 129.476 103.491 128.143 103.601 126.666C103.622 126.384 104.413 126.014 104.394 126.266C104.273 127.921 103.661 129.378 102.596 130.638C102.511 130.734 101.767 131.087 101.93 130.766C102.378 129.89 102.731 129.003 103.002 128.053C103.224 128.013 103.446 127.964 103.668 127.924C102.835 128.794 101.779 129.344 100.786 130.007C100.332 130.308 100.132 130 100.572 129.688C101.352 129.146 101.752 127.975 102.352 127.25C102.447 127.326 102.543 127.402 102.638 127.479C102.291 127.669 101.99 127.917 101.745 128.222C101.554 128.428 100.785 128.637 101.177 128.193Z" fill="white"/>
<path d="M81.7167 119.11C81.9474 118.849 82.182 118.583 82.53 118.475C82.7802 118.395 82.7744 118.585 82.7864 118.784C82.8005 119.016 82.0203 119.411 82.0037 119.209C81.9996 119.14 82.004 119.07 81.9786 119.007C82.4873 118.698 82.6519 118.632 82.4723 118.807C82.4359 118.849 82.4035 118.885 82.3671 118.926C82.2255 119.087 82.0352 119.228 81.8311 119.284C81.6735 119.324 81.6035 119.238 81.7167 119.11Z" fill="white"/>
<path d="M81.6644 119.269C81.5253 119.113 81.5949 118.906 81.4558 118.75C81.3212 118.599 82.0489 118.052 82.2206 118.244C82.3597 118.4 82.2901 118.607 82.4293 118.763C82.5592 118.91 81.8361 119.462 81.6644 119.269Z" fill="white"/>
<path d="M81.1532 117.805C81.2098 117.741 81.2624 117.681 81.3191 117.617C81.4485 117.471 81.6773 117.322 81.881 117.331C82.0893 117.344 81.9772 117.563 81.8963 117.654C81.8397 117.718 81.7871 117.778 81.7304 117.842C81.601 117.988 81.3722 118.137 81.1684 118.128C80.9642 118.11 81.0722 117.896 81.1532 117.805Z" fill="white"/>
<path d="M95.2916 100.257C95.4721 100.31 95.645 100.382 95.8104 100.471C95.8905 100.509 95.9712 100.556 96.0472 100.599C96.2395 100.703 96.2434 100.625 95.9776 100.733C95.8824 100.803 95.7918 100.878 95.6967 100.949C95.5531 101.148 95.6261 101.139 95.5239 100.951C95.3587 100.65 96.1286 100.157 96.2887 100.445C96.3716 100.6 96.4727 100.771 96.3793 100.941C96.2702 101.138 96.0217 101.318 95.7886 101.324C95.4217 101.334 95.0988 100.999 94.7556 100.9C94.3413 100.77 95.0011 100.171 95.2916 100.257Z" fill="white"/>
<path d="M94.5456 100.871C94.7114 100.683 94.8773 100.495 95.0392 100.312C95.1767 100.157 95.3848 100.023 95.5752 99.9546C95.7317 99.8973 95.7795 99.9721 95.6702 100.096C95.5043 100.283 95.3384 100.471 95.1766 100.654C95.039 100.81 94.831 100.944 94.6406 101.012C94.4841 101.069 94.4363 100.994 94.5456 100.871Z" fill="white"/>
<path d="M93.1516 146.219C93.1273 146.247 93.1313 146.242 93.1591 146.201C93.1348 146.229 93.1151 146.26 93.0914 146.296C93.0398 146.373 92.9842 146.454 92.9372 146.535C92.8978 146.598 92.8589 146.67 92.8241 146.737C92.7655 146.84 92.8392 146.701 92.8014 146.79C92.7787 146.843 92.8044 146.768 92.7902 146.748C92.7547 146.733 92.7146 146.713 92.6831 146.694C92.3567 146.658 92.185 146.963 92.3438 146.801C92.4333 146.709 92.5143 146.618 92.5992 146.522C92.7287 146.375 92.9529 146.223 93.1612 146.236C93.3695 146.249 93.266 146.467 93.181 146.563C92.9666 146.806 92.7481 147.053 92.4682 147.213C92.3178 147.3 91.9465 147.38 92.024 147.09C92.1081 146.764 92.3725 146.419 92.5778 146.169C92.7027 146.018 92.9401 145.869 93.1398 145.883C93.34 145.905 93.2279 146.124 93.1516 146.219Z" fill="white"/>
<path d="M82.9967 138.863C83.2556 138.57 83.5494 138.495 83.9284 138.472C84.1351 138.459 84.2373 138.647 84.1616 138.825C84.0708 139.038 83.845 139.164 83.6256 139.182C83.5739 139.186 83.5223 139.189 83.4792 139.192C83.6378 139.169 83.6573 139.064 83.5279 139.21C83.4024 139.352 83.1153 139.465 82.9438 139.346C82.746 139.22 82.8874 138.986 82.9967 138.863Z" fill="white"/>
<path d="M78.9638 143.95C79.2333 144.188 79.5073 144.43 79.7769 144.669C80.1286 144.98 79.4333 145.564 79.1319 145.297C79.0496 145.224 78.9628 145.148 78.8806 145.075C78.5289 144.764 79.2241 144.18 79.5256 144.447C79.6124 144.523 79.6946 144.596 79.7769 144.669C80.1286 144.98 79.4333 145.564 79.1319 145.297C78.8623 145.059 78.5928 144.821 78.3188 144.578C77.967 144.267 78.6623 143.683 78.9638 143.95Z" fill="white"/>
<path d="M89.6607 154.743C90.3285 155.276 91.1833 155.469 91.8562 156.015C91.6214 156.207 91.3861 156.391 91.1513 156.583C90.6198 155.803 90.0798 155.024 89.5938 154.211C89.3915 153.869 90.0065 153.459 90.2988 153.644C91.6488 154.519 92.5774 155.789 92.1942 157.456C92.1324 157.719 91.6213 158.131 91.3936 157.8C91.0568 157.306 90.6034 157.387 90.0822 157.276C89.6006 157.177 90.204 156.503 90.5721 156.584C91.2377 156.724 91.7317 156.672 92.1585 157.294C91.8931 157.41 91.6278 157.526 91.3579 157.638C91.7034 156.133 90.8551 155.049 89.6451 154.273C89.8799 154.081 90.1153 153.897 90.3501 153.706C90.8319 154.523 91.3674 155.298 91.9075 156.077C92.1254 156.392 91.4751 156.861 91.2026 156.644C90.5342 156.102 89.6789 155.901 89.0071 155.372C88.6609 155.082 89.3608 154.502 89.6607 154.743Z" fill="white"/>
<path d="M124.234 120.858C124.338 120.861 124.433 120.863 124.533 120.879C124.777 120.915 124.665 120.84 124.456 121.03C124.571 120.928 124.828 120.756 124.997 120.824C125.17 120.895 124.912 121.14 124.859 121.191C124.695 121.34 124.503 121.447 124.285 121.491C124.088 121.529 123.88 121.451 123.682 121.455C123.47 121.455 123.607 121.226 123.681 121.152C123.81 121.006 124.026 120.863 124.234 120.858Z" fill="white"/>
<path d="M122.283 121.296C123.207 121.052 124.075 120.825 124.62 119.969C124.738 119.78 125.404 119.497 125.344 119.933C125.137 121.511 123.773 122.336 122.379 122.808C122.483 122.589 122.595 122.37 122.698 122.152C123.316 122.209 123.691 121.913 124.196 121.609C124.667 121.324 124.975 121.768 124.491 122.057C123.715 122.521 123.12 122.9 122.189 122.811C121.724 122.766 122.356 122.208 122.508 122.155C123.525 121.815 124.387 121.272 124.539 120.134C124.78 120.119 125.026 120.108 125.263 120.098C124.548 121.211 123.375 121.617 122.153 121.931C121.571 122.093 121.913 121.393 122.283 121.296Z" fill="white"/>
<path d="M127.088 116.412C127.209 116.837 127.414 117.222 127.577 117.627C127.769 118.099 127.808 118.598 127.778 119.102C127.753 119.471 127.097 119.771 126.938 119.353C126.788 118.952 126.712 118.559 126.687 118.136C126.661 117.714 127.49 117.338 127.518 117.795C127.548 118.221 127.615 118.615 127.769 119.011C127.488 119.098 127.208 119.176 126.928 119.263C126.987 118.312 126.5 117.629 126.248 116.754C126.137 116.346 126.96 115.949 127.088 116.412Z" fill="white"/>
<path d="M192.428 162.483C192.766 162.782 193.013 163.074 193.194 163.495C193.3 163.743 192.626 164.183 192.429 164.001C191.911 163.519 191.615 162.915 191.272 162.309C191.136 162.076 191.915 161.59 192.036 161.803C192.38 162.409 192.681 163.017 193.194 163.495C192.94 163.662 192.683 163.834 192.429 164.001C192.248 163.58 192.006 163.292 191.663 162.99C191.512 162.856 192.209 162.29 192.428 162.483Z" fill="white"/>
<path d="M189.262 161.202C188.991 160.155 188.763 159.097 188.364 158.084C188.272 157.857 189.072 157.43 189.129 157.578C189.523 158.587 189.747 159.65 190.027 160.696C190.094 160.951 189.295 161.321 189.262 161.202Z" fill="white"/>
<path d="M189.497 164.224C189.718 164.378 189.999 164.374 190.22 164.529C190.46 164.7 189.736 165.242 189.537 165.099C189.316 164.944 189.035 164.949 188.814 164.794C188.579 164.618 189.294 164.076 189.497 164.224Z" fill="white"/>
<path d="M186.627 156.727C187.15 160.002 186.923 163.454 188.616 166.427C188.747 166.665 187.977 167.15 187.851 166.933C186.143 163.931 186.364 160.449 185.835 157.136C185.793 156.879 186.58 156.441 186.627 156.727Z" fill="white"/>
<path d="M186.153 167.528C186.205 167.451 186.024 167.315 185.973 167.271C185.69 167.02 186.419 166.482 186.642 166.68C186.889 166.898 187.102 167.127 186.879 167.452C186.752 167.633 186.567 167.787 186.343 167.81C186.167 167.825 186.042 167.69 186.153 167.528Z" fill="white"/>
</g>
</g>
<defs>
<filter id="filter0_d" x="19.9624" y="0.228027" width="249.038" height="244.947" filterUnits="userSpaceOnUse" color-interpolation-filters="sRGB">
<feFlood flood-opacity="0" result="BackgroundImageFix"/>
<feColorMatrix in="SourceAlpha" type="matrix" values="0 0 0 0 0 0 0 0 0 0 0 0 0 0 0 0 0 0 127 0"/>
<feOffset dy="8"/>
<feGaussianBlur stdDeviation="4"/>
<feColorMatrix type="matrix" values="0 0 0 0 0 0 0 0 0 0 0 0 0 0 0 0 0 0 0.4 0"/>
<feBlend mode="normal" in2="BackgroundImageFix" result="effect1_dropShadow"/>
<feBlend mode="normal" in="SourceGraphic" in2="effect1_dropShadow" result="shape"/>
</filter>
</defs>
</svg>
