<svg width="165" height="55" viewBox="0 0 165 55" fill="none" xmlns="http://www.w3.org/2000/svg">
<path d="M162.239 54.5706C154.845 47.2346 146.571 41.2271 137.314 36.4299C135.719 35.6033 136.822 33.035 138.536 33.5369C141.607 34.452 144.678 35.3524 147.734 36.2676C138.149 22.7765 123.703 13.9792 107.916 8.82781C91.652 3.52879 65.9962 -2.83298 52.5348 11.1304C51.8341 11.8685 51.208 12.6655 50.6713 13.5216C58.1251 14.0825 66.4286 16.149 70.9008 22.2746C74.5531 27.2784 74.9556 34.9834 69.6039 39.013C55.7846 49.4487 40.9218 29.4039 45.4835 16.459C28.1014 16.7247 11.8969 25.8762 1.78967 39.8101C1.08901 40.7695 -0.49118 39.9134 0.149842 38.8654C9.86953 22.9388 28.0716 13.1822 46.8699 13.4036C55.9486 -3.61529 80.859 -0.869832 96.8547 2.59888C117.695 7.1156 137.835 16.9461 150.298 34.3782C150.253 31.1752 150.224 27.9869 150.179 24.7839C150.164 23.3226 152.49 22.496 153.145 23.9868C157.349 33.5664 161.27 43.2493 164.907 53.0503C165.474 54.5706 163.297 55.6333 162.239 54.5706ZM61.852 38.2012C73.1071 38.2602 71.6611 25.4629 64.8185 20.8281C60.4208 17.8465 54.3982 16.8428 49.1657 16.5476C45.6624 25.8319 50.1645 38.1422 61.852 38.2012ZM152.4 40.3119C152.027 40.5924 151.55 40.7105 151.058 40.5629C150.626 40.43 150.179 40.2972 149.747 40.1791C153.145 42.4965 156.38 45.0058 159.496 47.7217C157.558 42.6884 155.546 37.6846 153.459 32.7103C153.488 34.762 153.503 36.8137 153.533 38.8654C153.548 39.6772 153.026 40.1496 152.4 40.3119Z" fill="white" fill-opacity="0.75"/>
</svg>
